[
    {
        "id":1,
        "present":false   
    },
    {
        "id":2,
        "present":false   
    },
    {
        "id":3,
        "present":false   
    },
    {
        "id":4,
        "present":false   
    },
    {
        "id":5,
        "present":false   
    },
    {
        "id":6,
        "present":false   
    },
    {
        "id":7,
        "present":false   
    },
    {
        "id":8,
        "present":false   
    },
    {
        "id":9,
        "present":false   
    },
    {
        "id":10,
        "present":false   
    },
    {
        "id":11,
        "present":false   
    },
    {
        "id":12,
        "present":false   
    },
    {
        "id":13,
        "present":false   
    },
    {
        "id":14,
        "present":false   
    },
    {
        "id":15,
        "present":false   
    },
    {
        "id":16,
        "present":false   
    },
    {
        "id":17,
        "present":false   
    },
    {
        "id":18,
        "present":false   
    },
    {
        "id":19,
        "present":false   
    },
    {
        "id":20,
        "present":false   
    },
    {
        "id":21,
        "present":false   
    },
    {
        "id":22,
        "present":false   
    },
    {
        "id":23,
        "present":false   
    },
    {
        "id":24,
        "present":false   
    },
    {
        "id":25,
        "present":false   
    },
    {
        "id":26,
        "present":false   
    },
    {
        "id":27,
        "present":false   
    },
    {
        "id":28,
        "present":false   
    },
    {
        "id":29,
        "present":false   
    },
    {
        "id":30,
        "present":false   
    },
    {
        "id":31,
        "present":false   
    },
    {
        "id":32,
        "present":false   
    },
    {
        "id":33,
        "present":false   
    },
    {
        "id":34,
        "present":false   
    },
    {
        "id":35,
        "present":false   
    },
    {
        "id":36,
        "present":false   
    },
    {
        "id":37,
        "present":false   
    },
    {
        "id":38,
        "present":false   
    },
    {
        "id":39,
        "present":false   
    },
    {
        "id":40,
        "present":false   
    }
]
